The Measles Project
…
state highest vs. lowest (county x, county y)

measles |>
  filter(mmr != -1) |>
  group_by(state) |>
  summarise(max = max(mmr),
            min = min(mmr))

# A tibble: 21 × 3
   state           max   min
   <chr>         <dbl> <dbl>
 1 Arizona       100    15.4
 2 Arkansas       96.1  17.2
 3 California     99     1  
 4 Colorado      100    16.2
 5 Connecticut   100    67.9
 6 Illinois      100    10.4
 7 Maine         100    38.5
 8 Massachusetts 100     3  
 9 Minnesota     100    20  
10 Missouri       99     1  
# … with 11 more rows
…
`summarise()` has grouped output by 'state'. You can override using the
`.groups` argument.

tablemeasles |>
  group_by(county, state) |>
  summarize(county = county,
             state = state,
             mmr = mmr) |>
  distinct()

`summarise()` has grouped output by 'county', 'state'. You can override using
the `.groups` argument.

# A tibble: 683 × 3
# Groups:   county, state [663]
   county    state        mmr
   <chr>     <chr>      <dbl>
 1 adams     Colorado     100
 2 Adams     Colorado     100
 3 Adams     Illinois     100
 4 Addison   Vermont      100
 5 Alameda   California    99
 6 Alamosa   Colorado     100
 7 Albany    New York     100
 8 Alexander Illinois     100
 9 Allegany  New York     100
10 Allen     Ohio         100
# … with 673 more rows
…
